{

	"nativeFields": {
		"id": "id",
		"group": "",
		"label": "nom",
		"title": "",
		"titleComplete": "",
		"image": "",
		"selectable": "",
		"grabbable": "",
		"insensitiveNode": "",
		"parent": ""
	},

	"classFields": ["ki"],
	
	"dataFields": ["koi"],
	
	"titleFields": ["ki",["koi","Koi with alias"]],
	
	"tagFields": ["bla",["bli","Bli with alias"]],
	
	"positionFields": {"x": "x", "y": "y"},
	
	"coordFields": {"lng": "x", "lat": "y"}
	
}