<?xml version="1.0" encoding="UTF-8"?>
<svg width="45" height="30" version="1.1" viewBox="0 0 11.906 7.9375" xmlns="http://www.w3.org/2000/svg" xmlns:cc="http://creativecommons.org/ns#" xmlns:dc="http://purl.org/dc/elements/1.1/" xmlns:rdf="http://www.w3.org/1999/02/22-rdf-syntax-ns#">
<metadata>
<rdf:RDF>
<cc:Work rdf:about="">
<dc:format>image/svg+xml</dc:format>
<dc:type rdf:resource="http://purl.org/dc/dcmitype/StillImage"/>
<dc:title/>
</cc:Work>
</rdf:RDF>
</metadata>
<g transform="translate(0 -289.06)">
<rect x="-1.7764e-15" y="289.06" width="11.906" height="7.9375" rx="1.2361" ry="1.4366" style="paint-order:normal"/>
</g>
</svg>
