<?xml version="1.0" encoding="UTF-8"?>
<svg width="400" height="400" version="1.1" viewBox="0 0 105.83 105.83" xmlns="http://www.w3.org/2000/svg" xmlns:cc="http://creativecommons.org/ns#" xmlns:dc="http://purl.org/dc/elements/1.1/" xmlns:rdf="http://www.w3.org/1999/02/22-rdf-syntax-ns#">
<metadata>
<rdf:RDF>
<cc:Work rdf:about="">
<dc:format>image/svg+xml</dc:format>
<dc:type rdf:resource="http://purl.org/dc/dcmitype/StillImage"/>
<dc:title/>
</cc:Work>
</rdf:RDF>
</metadata>
<g transform="translate(0 -191.17)">
<g transform="rotate(180 52.917 244.08)">
<path d="m52.098 266.2a19.645 19.645 0 0 1-19.645 19.645 19.645 19.645 0 0 1-19.645-19.645 19.645 19.645 0 0 1 19.645-19.645 19.645 19.645 0 0 1 19.645 19.645zm40.928-57.331a6.5483 6.5483 0 0 1-6.5483 6.5483 6.5483 6.5483 0 0 1-6.5483-6.5483 6.5483 6.5483 0 0 1 6.5483-6.5483 6.5483 6.5483 0 0 1 6.5483 6.5483zm-16.362 12.593v8.823c0 1.4795-1.7896 2.2046-2.8245 1.17l-2.4616-2.4617-16.788 16.788c-0.64616 0.64615-1.6937 0.64615-2.3398 0l-1.5599-1.5599c-0.64616-0.64616-0.64616-1.6937 0-2.3398l16.788-16.788-2.4613-2.4614c-1.039-1.039-0.30312-2.8245 1.1699-2.8245h8.8224c0.91377 0 1.6545 0.74074 1.6545 1.6545z" fill="#fff" style="paint-order:normal"/>
</g>
</g>
</svg>
